﻿<?xml version="1.0" encoding="utf-8"?>
<svg version="1.1" xmlns:xlink="http://www.w3.org/1999/xlink" width="10px" height="77px" preserveAspectRatio="xMidYMin meet" viewBox="446 493  8 77" xmlns="http://www.w3.org/2000/svg">
  <path d="M 450 493  L 450 565  " stroke-width="2" stroke="#0099cc" fill="none" />
</svg>