﻿<?xml version="1.0" encoding="utf-8"?>
<svg version="1.1" xmlns:xlink="http://www.w3.org/1999/xlink" width="10px" height="17px" preserveAspectRatio="xMidYMin meet" viewBox="694 425  8 17" xmlns="http://www.w3.org/2000/svg">
  <path d="M 575 246  L 575 425  A 5 5 0 0 0 580 430 L 693 430  A 5 5 0 0 1 698 435 L 698 442  " stroke-width="2" stroke="#0099cc" fill="none" />
</svg>